{ 
  "Mods": [
	{
		"Name": "Wristwatch",
		"Version": "1",
		"Author": "SgtJoe",
		"Description": "While on foot and not holding anything in your hands, hold down Right Alt to check the current time.",
		"Date": "28/05/2023",
		"Link": "https://gitlab.com/KolbenLP/WorkshopTLDMods/-/raw/WorkshopDatabase8.5/Wristwatch.dll",
		"PictureLink": "https://gitlab.com/KolbenLP/WorkshopTLDMods/-/raw/WorkshopDatabase8.5/picture/Wristwatch.png",
		"FileName": "Wristwatch.dll",
		"Category": "Gameplay",
		"Changelog": ""
	},
	{
		"Name": "Robin's better lights v1.1",
		"Version": "1.1",
		"Author": "Robin",
		"Description": "Led bulbs for your cars\n\n-White interior and reverse lights\n-White headlights (work only if spawned)\n-Increased range (500 low /1000 high)\nThis is a work in progress .",
		"Date": "28/05/2023",
		"Link": "https://gitlab.com/KolbenLP/WorkshopTLDMods/-/raw/WorkshopDatabase8.5/Robin_BetterCarLights.dll",
		"PictureLink": "https://gitlab.com/KolbenLP/WorkshopTLDMods/-/raw/WorkshopDatabase8.5/picture/betterheadlights.png",
		"FileName": "Robin_BetterCarLights.dll",
		"Category": "Vehicles",
		"Changelog": ""
	},
	{
		"Name": "Robin's & Kuri's Barkas",
		"Version": "1.1",
		"Author": "Kuri, Robin",
		"Description": "Development temporary stopped!!\nMore barkas configurations+ openable camper windows\n\nIf mod has bugs or broken it will not be fixed! RHD MOD INCOMPATIBLE WITH THIS MOD !!",
		"Date": "28/05/2023",
		"Link": "https://gitlab.com/KolbenLP/WorkshopTLDMods/-/raw/WorkshopDatabase8.5/Robin_MoreBarkas.zip",
		"PictureLink": "https://gitlab.com/KolbenLP/WorkshopTLDMods/-/raw/WorkshopDatabase8.5/picture/morebarkas.png",
		"FileName": "Robin_MoreBarkas.dll",
		"Category": "Vehicles",
		"Changelog": ""
	},
	{
		"Name": "Liquid Distiller",
		"Version": "1",
		"Author": "SgtJoe",
		"Description": "Gas Canisters will have a small chance to spawn as a Liquid Distiller that will allow you to separate fluid mixtures into individual liquids.\n\nHOW TO USE:\n1. Open the cap and pour in a mixture of any liquid\n2. Press the button to select the liquid you want to filter out\n3. Attach any fluid container to the distiller hose",
		"Date": "28/05/2023",
		"Link": "https://gitlab.com/KolbenLP/WorkshopTLDMods/-/raw/WorkshopDatabase8.5/LiquidDistiller.dll",
		"PictureLink": "https://gitlab.com/KolbenLP/WorkshopTLDMods/-/raw/WorkshopDatabase8.5/picture/LiquidDistiller.png",
		"FileName": "LiquidDistiller.dll",
		"Category": "Items",
		"Changelog": ""
	},
	{
		"Name": "Ignition Powered Radios",
		"Version": "1",
		"Author": "SgtJoe",
		"Description": "Vehicle radios will now automatically turn on/off alongside your vehicle ignition.",
		"Date": "16/05/2023",
		"Link": "https://gitlab.com/KolbenLP/WorkshopTLDMods/-/raw/WorkshopDatabase8.5/RadioIgnition.dll",
		"PictureLink": "https://gitlab.com/KolbenLP/WorkshopTLDMods/-/raw/WorkshopDatabase8.5/picture/RadioIgnition.png",
		"FileName": "RadioIgnition.dll",
		"Category": "Vehicles",
		"Changelog": ""
	},
	{
		"Name": "Dirtifier",
		"Version": "1",
		"Author": "SgtJoe",
		"Description": "Jizz-On-It bottles now have a 25% chance to spawn as a pure brown variant which will make things dirtier/rustier instead of cleaner!",
		"Date": "11/05/2023",
		"Link": "https://gitlab.com/KolbenLP/WorkshopTLDMods/-/raw/WorkshopDatabase8.5/Dirtifier.dll",
		"PictureLink": "https://gitlab.com/KolbenLP/WorkshopTLDMods/-/raw/WorkshopDatabase8.5/picture/Dirtifier.png",
		"FileName": "Dirtifier.dll",
		"Category": "Items",
		"Changelog": ""
	},
	{
		"Name": "Technical",
		"Version": "1",
		"Author": "SgtJoe",
		"Description": "Replaces the Caddy passenger seat with a mounted machine gun that you can fire with the left mouse button. Also removes the collision from the rear window so you can enter the gun directly from the driver seat.",
		"Date": "11/05/2023",
		"Link": "https://gitlab.com/KolbenLP/WorkshopTLDMods/-/raw/WorkshopDatabase8.5/Technical.dll",
		"PictureLink": "https://gitlab.com/KolbenLP/WorkshopTLDMods/-/raw/WorkshopDatabase8.5/picture/Technical.png",
		"FileName": "Technical.dll",
		"Category": "Vehicles",
		"Changelog": ""
	},
	{
		"Name": "Poppable Tires",
		"Version": "2",
		"Author": "SgtJoe",
		"Description": "You can now use firearms to pop vehicle tires with explosive force! Combine with the AI mod for funny results!",
		"Date": "24/04/2023",
		"Link": "https://gitlab.com/KolbenLP/WorkshopTLDMods/-/raw/WorkshopDatabase8.5/PopTires.dll",
		"PictureLink": "https://gitlab.com/KolbenLP/WorkshopTLDMods/-/raw/WorkshopDatabase8.5/picture/PopTires.png",
		"FileName": "PopTires.dll",
		"Category": "Gameplay",
		"Changelog": "- Fixed being able to pop the tires of the vehicle you're currently driving"
	},
	{
		"Name": "Un-Flip Your Car",
		"Version": "1",
		"Author": "SgtJoe",
		"Description": "If you ever find yourself upside down, you can now press F2 to automatically set your car on its wheels instead of having to get out and mess with the janky pushing system.",
		"Date": "23/04/2023",
		"Link": "https://gitlab.com/KolbenLP/WorkshopTLDMods/-/raw/WorkshopDatabase8.5/UnflipCar.dll",
		"PictureLink": "https://gitlab.com/KolbenLP/WorkshopTLDMods/-/raw/WorkshopDatabase8.5/picture/UnflipCar.png",
		"FileName": "UnflipCar.dll",
		"Category": "Gameplay",
		"Changelog": "Test"
	},
	{
		"Name": "Tumpy_Diesel_i6",
		"Version": "0.5",
		"Author": "Tumpy_Noodles",
		"Description": "-Caterpillar Diesel i6 engine\n-Custom Model & Textures\n-Replaces 1/2 all IFA Engines\n-Comes in 5 sizes. Larger = more fuel and oil consumption\n-Scaled to and Perform like real counterparts. With half nm and double rpms\n-From 7.2L ~2x IFA. To 18.1L ~6.5x IFA.\n-Side Oil Cap acts like a bottom oil cap. Sorry.\n-NOT COMPATIBLE WITH BLOOD ENGINES\n\nPlanned for Final Release:\n-Custom Sounds!!!!!\n-Bottom oil cap working properly\n-Make it compatible with Bus\n-Larger oil capacity cause why not ",
		"Date": "20/04/2023",
		"Link": "https://gitlab.com/KolbenLP/WorkshopTLDMods/-/raw/WorkshopDatabase8.5/Tumpy_Diesel_i6_v0.5.zip",
		"PictureLink": "https://gitlab.com/KolbenLP/WorkshopTLDMods/-/raw/WorkshopDatabase8.5/picture/tumpyi6.png",
		"FileName": "Tumpy_Diesel_i6.dll",
		"Category": "Engines",
		"Changelog": "Test"
	},
	{
		"Name": "More Fridges",
		"Version": "1.0.0",
		"Author": "Kuri and Sabi",
		"Description": "Adds multiple sizes for fridges (single door only)",
		"Date": "18/04/2023",
		"Link": "https://gitlab.com/KolbenLP/WorkshopTLDMods/-/raw/WorkshopDatabase8.5/MoreFridges.zip",
		"PictureLink": "https://gitlab.com/KolbenLP/WorkshopTLDMods/-/raw/WorkshopDatabase8.5/picture/morefridges.png",
		"FileName": "Kuri_Fridges.dll",
		"Category": "Items",
		"Changelog": "Test"
	},
	{
		"Name": "Industrial v8 Engines",
		"Version": "1.0",
		"Author": "Rodney Dawn",
		"Description": "This is the industrial Diesel V8 I've been working on.  It is a port of Serena's V8 engine, and all credit goes to Jessica for all the hard work.  I just wrote some additional code, and adjusted the engine parameters to suit its new role.   This is functional as a standalone, but is intended as a companion to the original mod, Serena's V8 engine.What this does is adds the possibility for Industrial sized diesel V8's to spawn as bus and truck engines.  These range in size from 7.3 to 14L displacement, and are intended for heavy vehicles (Bus and truck)  so they will be extremely slow in regular cars (except the Fury because of its gearing it can do 160kph with the largest of these engines , the 14L version.)Due to the IFA gearing the IFA gets too fast in 5th gear, so stick to 4th to avoid erratic handling.Bus works flawlessly, and tops out around the top of its speedometer just barely on flat ground.These run hot so be sure to have a clean radiator full of pure water or blood",
		"Date": "16/04/2023",
		"Link": "https://gitlab.com/KolbenLP/WorkshopTLDMods/-/raw/WorkshopDatabase8.5/Industrial_Diesel_V8.zip",
		"PictureLink": "https://gitlab.com/KolbenLP/WorkshopTLDMods/-/raw/WorkshopDatabase8.5/picture/industrialv8.png",
		"FileName": "DIESEL_V8ENGINE.dll",
		"Category": "Engines",
		"Changelog": "Test"
	},
	{
		"Name": "Kuri's Fuel Tanks",
		"Version": "1.01",
		"Author": "Kuri",
		"Description": "This mod adds the ability to put fuel tanks on cars. \nYes, cars won't have their own gas tanks now, you'll have to find one and attach it to the car with physlock (Sometimes a fuel tank from Jawa will spawn in the starter home, so, you can use it as a temporary gas tank for your car). \nYou can't have more than one fuel tank (the one that was put in last after you clicked on the cap will be used). \nTo attach the fuel tank to the car, put it in the car (be sure to use the physlock) and then press the cap on the car.\n Instructions are included below.\n\nVariations of new gas tanks have also been added",
		"Date": "15/04/2023",
		"Link": "https://gitlab.com/KolbenLP/WorkshopTLDMods/-/raw/WorkshopDatabase8.5/Kuri_FuelTanks.dll",
		"PictureLink": "https://gitlab.com/KolbenLP/WorkshopTLDMods/-/raw/WorkshopDatabase8.5/picture/Kurifueltank.png",
		"FileName": "Kuri_FuelTanks.dll",
		"Category": "Vehicles",
		"Changelog": "Test"
	},
	{
		"Name": "Barkas Trailer Hitch",
		"Version": "1.1",
		"Author": "Jessica",
		"Description": "Adds a trailer hitch to the Barkas van and flatbed variants\n\nImportant note: be careful with the tailgate on the flatbed while you have a trailer attached, moving it down too far and clipping it into the trailer can cause physics to freak out!",
		"Date": "14/04/2023",
		"Link": "https://gitlab.com/KolbenLP/WorkshopTLDMods/-/raw/WorkshopDatabase8.5/SERENA_BARKASHITCH.dll",
		"PictureLink": "https://gitlab.com/KolbenLP/WorkshopTLDMods/-/raw/WorkshopDatabase8.5/picture/Barkashitch.png",
		"FileName": "Barkashitch.dll",
		"Category": "Vehicles",
		"Changelog": "Test"
	},
	{
		"Name": "Better Trabant Sound",
		"Version": "1.1",
		"Author": "RalphCZ",
		"Description": "This mod is replacing original Trabant sound with better",
		"Date": "14/04/2023",
		"Link": "https://gitlab.com/KolbenLP/WorkshopTLDMods/-/raw/WorkshopDatabase8.5/TrabiSound.zip",
		"PictureLink": "https://gitlab.com/KolbenLP/WorkshopTLDMods/-/raw/WorkshopDatabase8.5/picture/trabisound.png",
		"FileName": "TrabiSound.dll",
		"Category": "Gameplay",
		"Changelog": "Test"
	},
	{
		"Name": "Consistent Odometers",
		"Version": "1",
		"Author": "SgtJoe",
		"Description": "All odometers in all vehicles will now display the total kilometers traveled in that save file.\nNOT TESTED IN MULTIPLAYER.",
		"Date": "02/04/2023",
		"Link": "https://gitlab.com/KolbenLP/WorkshopTLDMods/-/raw/WorkshopDatabase8.5/StandardizedOdometers.dll",
		"PictureLink": "https://gitlab.com/KolbenLP/WorkshopTLDMods/-/raw/WorkshopDatabase8.5/picture/odo.png",
		"FileName": "StandardizedOdometers.dll",
		"Category": "Gameplay",
		"Changelog": "Test"
	},
	{
		"Name": "Speedometer mod",
		"Version": "2.1",
		"Author": "Kuri",
		"Description": "A mod that adds something like a digital speedometer. Attach it to your car with physlock to make it work (and turn on the ignition, of course)\n(It replaces Plymouth Fury radio sometimes)",
		"Date": "02/04/2023",
		"Link": "https://gitlab.com/KolbenLP/WorkshopTLDMods/-/raw/WorkshopDatabase8.5/Speedometer.zip",
		"PictureLink": "https://gitlab.com/KolbenLP/WorkshopTLDMods/-/raw/WorkshopDatabase8.5/picture/speedometer.png",
		"FileName": "Kuri_Speedometer.dll",
		"Category": "Items",
		"Changelog": "Test"
	},
	{
		"Name": "explosives mod",
		"Version": "1.0",
		"Author": "Kuri",
		"Description": "This mod adds three new types of explosives - dynamite, grenade and nitroglycerin.\n\n(Nitroglycerin is very fragile, it can explode literally in your hands)\n\nThanks Tumpy_Noodles for the nitroglycerin model",
		"Date": "02/04/2023",
		"Link": "https://gitlab.com/KolbenLP/WorkshopTLDMods/-/raw/WorkshopDatabase8.5/Explosives_Mod.zip",
		"PictureLink": "https://gitlab.com/KolbenLP/WorkshopTLDMods/-/raw/WorkshopDatabase8.5/picture/explosives.png",
		"FileName": "Kuri_Explosives.dll",
		"Category": "Items",
		"Changelog": "Test"
	},
	{
		"Name": "Luxury Golf Engines",
		"Version": "1.1.2.6",
		"Author": "Kuri, NICULL",
		"Description": "Look in the thumbnail!",
		"Date": "26/03/2023",
		"Link": "https://gitlab.com/KolbenLP/WorkshopTLDMods/-/raw/WorkshopDatabase8.5/KuriAndMilk_Luxury_golf_engines_1124.zip",
		"PictureLink": "https://gitlab.com/KolbenLP/WorkshopTLDMods/-/raw/WorkshopDatabase8.5/picture/luxgolfengine.png",
		"FileName": "Kuri_and_NICULL_Luxury_Golf_Engines.dll",
		"Category": "Engines",
		"Changelog": "Test"
	},
	{
		"Name": "Diesel Engines Remaster",
		"Version": "1.1.0.8",
		"Author": "Kuri, NICULL",
		"Description": "IMPORTANT NOTE! REMOVE ALL OF YOUR OLD DIESEL ENGINE MODS BEFORE INSTALLING THIS ONE!\nANOTHER IMPORTANT NOTE! This mod is only confirmed to be compatible with our other Luxury Golf Engines mod.\n\nDriving across the desert in my brand new luxury engined golf, stumbled across a ship full of these bad bois inside.\nThey look quite familiar, yet sound so different?\nThey kinda look a little bigger too!\n\nAfter 5 years on the east coast, it was time to drop a new diesel engines mod, this time its ALL the diesel engines we have ever made into one mod. 6 new engine variants of the vanilla engines to mess around with.\n-New sounds\n-Different engine sizes\n-Compatible with Luxury Engines Mod\n\nBig thanks to Kuri and Tumpy_Noodles for making this possible, also a special thanks to ghaleas and runden for the original mod from years ago.\n\nupdaet 1.1.0.3\n-torque curves of the v8s and tdi engines are changed\n-oil consumption of v8's and tdi engines is increased\n-New startup sound for v8s\n-Attempted to balance audio volumes\n-Balanced pitch volumes ",
		"Date": "25/03/2023",
		"Link": "https://gitlab.com/KolbenLP/WorkshopTLDMods/-/raw/WorkshopDatabase8.5/KuriandMilk_Diesel_engines_Remaster1_0.zip",
		"PictureLink": "https://gitlab.com/KolbenLP/WorkshopTLDMods/-/raw/WorkshopDatabase8.5/picture/dieselengines.png",
		"FileName": "Diesel_Cars_ModR.dll",
		"Category": "Engines"
	},
	{
		"Name": "Kuri's Portable Radio!",
		"Version": "0.2.2",
		"Author": "Kuri",
		"Description": "This mod adds something like a radio, which can sometimes appear instead of the usual one. It also shows the coordinates, the time and the current track playing!\n\n- There is a battery charge and the batteries themselves (to change the battery of the radio, just bring the battery close to it)\n- You can skip a track by pressing the red button\n- There is an opportunity to change the interface theme, to do this, click on the black button\n- Press the green button to quickly turn on Custom Radio\n- and... one of the most interesting things, in my opinion. To turn on the car mode, attach the radio to the car with the physlock and press the orange button. It will display pretty much all the information about the car!\n- There are several sizes of radio available, as well as two colors, black and white.\n- There is also a standby mode, which the radio goes into if the player doesn't hold it for a long time.\n\nThere are some bugs, I am aware of them and MAY be fixing them soon. Please DO NOT report them. ",
		"Date": "18/03/2023",
		"Link": "https://gitlab.com/KolbenLP/WorkshopTLDMods/-/raw/WorkshopDatabase8.5/Kuri_PortableRadio.zip",
		"PictureLink": "https://gitlab.com/KolbenLP/WorkshopTLDMods/-/raw/WorkshopDatabase8.5/picture/radio.png",
		"FileName": "Kuri_PortableRadio.dll",
		"Category": "Items"
	},
	{
		"Name": "Roblox Cars",
		"Version": "1.0",
		"Author": "RUNDEN",
		"Description": "Makes the cars all roblox-y",
		"Date": "18/03/2023",
		"Link": "https://gitlab.com/KolbenLP/WorkshopTLDMods/-/raw/WorkshopDatabase8.5/RUNDEN_RobloxCars.dll",
		"PictureLink": "https://gitlab.com/KolbenLP/WorkshopTLDMods/-/raw/WorkshopDatabase8.5/picture/roblox.png",
		"FileName": "RUNDEN_RobloxCars.dll",
		"Category": "Vehicles"
	},
	{
		"Name": "Make fluids visible",
		"Version": "1.0",
		"Author": "RUNDEN",
		"Description": "Small simple mod that just makes it so you can see the liquid that's in a bucket",
		"Date": "18/03/2023",
		"Link": "https://gitlab.com/KolbenLP/WorkshopTLDMods/-/raw/WorkshopDatabase8.5/RUNDEN_BucketVisibleFluid.dll",
		"PictureLink": "https://gitlab.com/KolbenLP/WorkshopTLDMods/-/raw/WorkshopDatabase8.5/picture/bucket.png",
		"FileName": "RUNDEN_BucketVisibleFluid.dll",
		"Category": "Gameplay"
	},
	{
		"Name": "No Grotesque Content",
		"Version": "2.0",
		"Author": "SgtJoe",
		"Description": "Removes feces, severed limbs, and sex dolls from the game world. Also permanently empties the urination/defection meters so you can use the eating and drinking mechanic in peace. \nDoes not apply immediately after starting a new game, you have to save and load first. \n\nNOT TESTED IN MULTIPLAYER.\n\nv2:\n- Emptied meters will no longer pop up onscreen when eating/drinking\n- Removed feces air freshener\n- Removed extreme gore paintings",
		"Date": "18/03/2023",
		"Link": "https://gitlab.com/KolbenLP/WorkshopTLDMods/-/raw/WorkshopDatabase8.5/NoGC.dll",
		"PictureLink": "https://gitlab.com/KolbenLP/WorkshopTLDMods/-/raw/WorkshopDatabase8.5/picture/poop.png",
		"FileName": "NoGC.dll",
		"Category": "Gameplay"
	},
	{
		"Name": "Fuck Off Cactus",
		"Version": "1.0",
		"Author": "Jessica",
		"Description": "Just a simple mod that makes all cactus gibs nonphysical so that instead of getting stuck in your car on impact, they just fall right out of the world.",
		"Date": "15/03/2023",
		"Link": "https://gitlab.com/KolbenLP/WorkshopTLDMods/-/raw/WorkshopDatabase8.5/SERENA_FUCKOFFCACTUS.dll",
		"PictureLink": "https://gitlab.com/KolbenLP/WorkshopTLDMods/-/raw/WorkshopDatabase8.5/picture/fuckoffcactus.png",
		"FileName": "SERENA_FUCKOFFCACTUS.dll",
		"Category": "Gameplay"
	},
	{
		"Name": "NO TumbleWeeds",
		"Version": "2.1",
		"Author": "Tumpy_Noodles",
		"Description": "- Removes the tumbleweed script so new weeds won't spawn in\n- Tumbleweeds no longer save.\n- If they are already saved. Load save. Save. Load new save. Magically now gone.....\n- If you have a potato computer this might help with fps. No guarantees.\nV2.1 \n- Adds a Settings file to Enable/Disable either the Spawning or Saving separately. (I like the weeds, don't like them saving)\n- Settings file found in Documents/TheLongDrive/Mods/Config/Mod Settings/No_TumbleWeeds - Load a save once to generate default file.\n- Set false Settings to true to Enable them.\n- Adds Storm and Storm Limit Settings!!!!!! (This is how I got the thumbnail)\n- Storm spawns them as fast as it can and sets the limit to the Limit Setting. (Overrides Spawn Setting)\n- Default setting is 250. (My computer was capable of 1500) ",
		"Date": "15/03/2023",
		"Link": "https://gitlab.com/KolbenLP/WorkshopTLDMods/-/raw/WorkshopDatabase8.5/No_TumbleWeeds.dll",
		"PictureLink": "https://gitlab.com/KolbenLP/WorkshopTLDMods/-/raw/WorkshopDatabase8.5/picture/notumble.png",
		"FileName": "No_TumbleWeeds.dll",
		"Category": "Gameplay"
	},
	{
		"Name": "Beetle Trailer Hitch",
		"Version": "1.0",
		"Author": "Jessica",
		"Description": "Enables the currently hidden trailer hitch on the Beetle, includes both the hardtop and softtop variants.",
		"Date": "15/03/2023",
		"Link": "https://gitlab.com/KolbenLP/WorkshopTLDMods/-/raw/WorkshopDatabase8.5/SERENA_BEETLEHITCH.dll",
		"PictureLink": "https://gitlab.com/KolbenLP/WorkshopTLDMods/-/raw/WorkshopDatabase8.5/picture/beetlehatch.png",
		"FileName": "SERENA_BEETLEHITCH.dll",
		"Category": "Vehicles"
	},
	{
		"Name": "Attach preview",
		"Version": "1.0",
		"Author": "RUNDEN",
		"Description": "a little helper mod to make attaching things with G in the right place a little bit easier\n\nit does this by making a little live preview of where the item you're trying to attach will go\n\nit helps if you hold Right Click and move the mouse to the left or right before trying to mount stuff, since then you can see the little ghost preview thing easier.",
		"Date": "03/03/2023",
		"Link": "https://gitlab.com/KolbenLP/WorkshopTLDMods/-/raw/WorkshopDatabase8.5/RUNDEN_ShowPlaceLocation.dll",
		"PictureLink": "https://gitlab.com/KolbenLP/WorkshopTLDMods/-/raw/WorkshopDatabase8.5/picture/preview.png",
		"FileName": "RUNDEN_ShowPlaceLocation.dll",
		"Category": "Gameplay"
	},
	{
		"Name": "Attach EVERYTHING",
		"Version": "2.0",
		"Author": "Kuri",
		"Description": "Greatly optimized the mod.\nA problem with saves has been fixed. Now attached things retain their state even after reloading the save!\n\nA mod that allows you to attach all items to everything.\n\nIf something is not attachable, try reloading the save\nCan sometimes cause lag, but I'm not sure ",
		"Date": "03/03/2023",
		"Link": "https://gitlab.com/KolbenLP/WorkshopTLDMods/-/raw/WorkshopDatabase8.5/Kuri_AttachEverything.dll",
		"PictureLink": "https://gitlab.com/KolbenLP/WorkshopTLDMods/-/raw/WorkshopDatabase8.5/picture/attach.png",
		"FileName": "Kuri_AttachEverything.dll",
		"Category": "Gameplay"
	},
	{
		"Name": "Better AM Radio",
		"Version": "1.2",
		"Author": "RalphCZ",
		"Description": "With this mod, AM frequency spacing is Europan (9 kHz) and you can use Longwave band.\n\nAM frequency range is 153 - 1602 kHz.\n\n1.2 Changelog: Added noise to AM stations. 1332 frequency changed to 234.",
		"Date": "01/03/2023",
		"Link": "https://gitlab.com/KolbenLP/WorkshopTLDMods/-/raw/WorkshopDatabase8.5/BetterAMRadio.dll",
		"PictureLink": "https://gitlab.com/KolbenLP/WorkshopTLDMods/-/raw/WorkshopDatabase8.5/picture/betteram.png",
		"FileName": "BetterAMRadio.dll",
		"Category": "Items"
	},
	{
		"Name": "Plymouth Fury Cabriolet",
		"Version": "1.1.1",
		"Author": "Sabi and Kuri",
		"Description": "Adds a Cabriolet version of the Plymouth Fury to the game. This is not a Convertible, just    a cabrio.\n\nThere is a slight issue with regular fury doors spawning on the Cabrio version of the Plymouth, but we don't know how to fix this. You will most likely need to find doors to match yours, or spawn them in.\n\nKuri is a qt",
		"Date": "07/02/2023",
		"Link": "https://gitlab.com/KolbenLP/WorkshopTLDMods/-/raw/WorkshopDatabase8.5/furycabrio.zip",
		"PictureLink": "https://gitlab.com/KolbenLP/WorkshopTLDMods/-/raw/WorkshopDatabase8.5/picture/furycabrio.png",
		"FileName": "FuryCabrio.dll",
		"Category": "Vehicles"
	},
	{
		"Name": "Vented Hoods",
		"Version": "1.2",
		"Author": "Sabi and Kuri",
		"Description": "!May be a bit broken: the models are occasionally really large on spawn \n\nAdds 4 new vented hoods to the game, so that the Plymouth's V8 engine fits into the engine bay of each car.\n\nSpecial thanks to Jessica, Runden and subG for helping us in the making of this mod.",
		"Date": "17/01/2023",
		"Link": "https://gitlab.com/KolbenLP/WorkshopTLDMods/-/raw/WorkshopDatabase8.5/SabiKuriHoods.zip",
		"PictureLink": "https://gitlab.com/KolbenLP/WorkshopTLDMods/-/raw/WorkshopDatabase8.5/picture/SabiKuriHoods.png",
		"FileName": "Sabi_Kuri_Hoods.dll",
		"Category": "Items"
	},
	{
		"Name": "faster walking",
		"Version": "1.0",
		"Author": "Sabi",
		"Description": "increases the character speed by about 50%\n\nsend lots of love to Kuri who has helped me in making this mod",
		"Date": "17/01/2023",
		"Link": "https://gitlab.com/KolbenLP/WorkshopTLDMods/-/raw/WorkshopDatabase8.5/SABI_fastwalk.dll",
		"PictureLink": "https://gitlab.com/KolbenLP/WorkshopTLDMods/-/raw/WorkshopDatabase8.5/picture/fastwalk.png",
		"FileName": "SABI_fastwalk.dll",
		"Category": "Gameplay"
	},
	{
		"Name": "Kuri QoL improvements",
		"Version": "1.6c",
		"Author": "Kuri",
		"Description": "This is an extended version of container mod (FOR CORRECT WORK OF THE MOD REMOVE CONTAINER MOD!!!).\n\nI have been working on this mod for a very long time, there are variations of many things like beds, trophies, weapons, chairs, etc.\n\nHere is a small list of changes:\n- random size boards have been removed\n- added variations for beds, now they can have blankets like car seats\n- variations for car seats have been added\n- many variations on the appearance of weapons have been added\n- tinting for car windows has been added\n- variations for baskets have been added\n- cigarette boxes of various sizes were added\n- carpets were added, which sometimes replace bus trapdoors\n- paint cans were added (thanks SubG), jizzonit in various sizes.\n- variations of bar and regular chairs were added.\n- different colored radios have been fixed.\n- and other things were done.",
		"Date": "23/01/2023",
		"Link": "https://gitlab.com/KolbenLP/WorkshopTLDMods/-/raw/WorkshopDatabase8.5/Kuri_RandomContainer.dll",
		"PictureLink": "https://gitlab.com/KolbenLP/WorkshopTLDMods/-/raw/WorkshopDatabase8.5/picture/randomcon.png",
		"FileName": "Kuri_QoL.dll",
		"Category": "Gameplay"
	},
	{
		"Name": "Blood Engines for the VW Gold and VW Caddy",
		"Version": "1.0",
		"Author": "Rodney Dawn",
		"Description": "May be integrated into original mod in a future release, but for now it is standalone.\n\nOnly the caddy Gas engine will be changed!",
		"Date": "01/01/2023",
		"Link": "https://gitlab.com/KolbenLP/WorkshopTLDMods/-/raw/WorkshopDatabase8.5/Rodney_Dawn_Bloodengine_GOLF.dll",
		"PictureLink": "https://gitlab.com/KolbenLP/WorkshopTLDMods/-/raw/WorkshopDatabase8.5/picture/bloodgolfcaddy.png",
		"FileName": "Rodney_Dawn_Bloodengine_GOLF.dll",
		"Category": "Engines"
	},
	{
		"Name": "Less Violent Crashes",
		"Version": "2.0",
		"Author": "Sabi",
		"Description": "This mod prevents a few car parts from falling off to make crashes less of a problem. It does NOT prevent the rest of the car parts from falling far away from the car, it still depends on how hard you crash & whether you go flying or not.\n\nEspecially useful for long journeys. Spare parts are not as important, but it's still worth keeping some wheels with you.",
		"Date": "01/01/2023",
		"Link": "https://gitlab.com/KolbenLP/WorkshopTLDMods/-/raw/WorkshopDatabase8.5/SABI_less_violent_crashes.dll",
		"PictureLink": "https://gitlab.com/KolbenLP/WorkshopTLDMods/-/raw/WorkshopDatabase8.5/picture/sabicrash.png",
		"FileName": "SABI_less_violent_crashes.dll",
		"Category": "Gameplay"
	},
	{
		"Name": "Diesel Beetle Engine",
		"Version": "1.0",
		"Author": "Rodney Dawn",
		"Description": "This adds a chance for the VW beetle to spawn with a diesel engine, and a chance for the diesel version of the beetle engine to spawn whenever a beetle engine normally spawns.\n\nFeatures increased torque and lower RPM\nIncreased oil consumption\n6L oil capacity",
		"Date": "31/12/2022",
		"Link": "https://gitlab.com/KolbenLP/WorkshopTLDMods/-/raw/WorkshopDatabase8.5/Rodney_Dawn_DieselBeetle.dll",
		"PictureLink": "https://gitlab.com/KolbenLP/WorkshopTLDMods/-/raw/WorkshopDatabase8.5/picture/dieselbeetle.png",
		"FileName": "Rodney_Dawn_DieselBeetle.dll",
		"Category": "Engines"
	},
	{
		"Name": "Blood Engines mod",
		"Version": "1.0",
		"Author": "Rodney Dawn",
		"Description": "The first release of my Blood engines mod.\nKnown issues: Cars spawned with the spawner still don't spawn with blood in the fuel tank as they should.  This will be fixed in the next release.\n\nWhat it does:\nAdds blood fueled engines as possible spawns for the Fury and the IFA\n\nConflicts: None known.  Tested and compatible with AI cars and every engine mod on the workshop.\nAI cars /do/ properly spawn with blood in the tank, so finding Christine while hitchiking is entirely possible\n\nUses blood as fuel\nMore heat generation\nHarder starting\nMore oil consumption\nMore fuel consumption\n666NM torque\nRpms are a compromise. a tad slow for the Fury topping at 210kph, and a bit fast for the IFA but perfectly driveable in both\n6.6L oil capacity\nRed color ",
		"Date": "31/12/2022",
		"Link": "https://gitlab.com/KolbenLP/WorkshopTLDMods/-/raw/WorkshopDatabase8.5/Rodney_Dawn_Bloodengines.dll",
		"PictureLink": "https://gitlab.com/KolbenLP/WorkshopTLDMods/-/raw/WorkshopDatabase8.5/picture/bloodengine.png",
		"FileName": "Rodney_Dawn_Bloodengines.dll",
		"Category": "Engines"
	},
	{
		"Name": "Simple Coin Mod",
		"Version": "1.0",
		"Author": "Kuri",
		"Description": "This mod adds simple coins that sometimes spawn instead of gold bars. They have no use, except RP and collecting.",
		"Date": "30/12/2022",
		"Link": "https://gitlab.com/KolbenLP/WorkshopTLDMods/-/raw/WorkshopDatabase8.5/coin.zip",
		"PictureLink": "https://gitlab.com/KolbenLP/WorkshopTLDMods/-/raw/WorkshopDatabase8.5/picture/coin.png",
		"FileName": "CoinsMod.dll",
		"Category": "Items"
	},
	{
		"Name": "dingus",
		"Version": "1.0",
		"Author": "RUNDEN",
		"Description": "maxwell the carryable cat™️.",
		"Date": "30/12/2022",
		"Link": "https://gitlab.com/KolbenLP/WorkshopTLDMods/-/raw/WorkshopDatabase8.5/dingus.dll",
		"PictureLink": "https://gitlab.com/KolbenLP/WorkshopTLDMods/-/raw/WorkshopDatabase8.5/picture/maxwell.png",
		"FileName": "dingus.dll",
		"Category": "Items"
	},
	  {
		 "Name": "BetterCrates v2",
		 "Version": "3.0",
		 "Author": "TumRunFreakSheep",
		 "Description": "-Updated for 2023 Update.\n\n-Despawns gibs. Nothing else.\n-Code cleaned up a ton. (Now no longer works for older version.) (Also Assets file no longer necessary for new version. You can delete it.)\n-A way to Always Spawn the Red UFO has been added.\nv2.1 Changelog\n- Crate gibs now despawn based on a timer only. Meaning you don't have to look away from them. They will start to depsawn 3 seconds after break. This means it's harder to use crate pieces to break other crates but overall I think this is a good change since unity's isvisible function seems a bit wonky. \n- Red Ufo changed back to Red.\n\nMetadata is now correct with version information and author.\n\n- Spawns Random items with every crate broken.\n- Now works with base game crates!!!!!!\n- Crate Gibs now despawn when looking away from them.\n- Use melee, bullets, or thrown objects to break them instead of physics™️.",
		 "Date": "25/11/2022",
		 "Link": "https://gitlab.com/KolbenLP/WorkshopTLDMods/-/raw/WorkshopDatabase8.5/BetterCrates.dll",
		 "PictureLink": "https://gitlab.com/KolbenLP/WorkshopTLDMods/-/raw/WorkshopDatabase8.5/picture/bettercrates.png",
		 "FileName": "BetterCrates.dll",
		 "Category": "Gameplay"
     },
     {
		"Name": "AI Traffic",
		 "Version": "69.1",
		 "Author": "RUNDEN",
		 "Description": "Adds other cars as traffic on the roads, who drive along with you! You can adjust the spawn rate in the settings menu, or press F11 to force an AI car to spawn",
		 "Date": "22/02/2022",
		 "Link": "https://gitlab.com/KolbenLP/WorkshopTLDMods/-/raw/WorkshopDatabase8.5/RUNDEN_AI.dll",
		 "PictureLink": "https://gitlab.com/KolbenLP/WorkshopTLDMods/-/raw/WorkshopDatabase8.5/picture/traffic.png",
		 "FileName": "RUNDEN_AI.dll",
		 "Category": "Gameplay",
		 "Changelog": "I dont know, ask RUNDEN"
     },
	  {
		"Name": "KarL ",
		 "Version": "1.0",
		 "Author": "RUNDEN",
		 "Description": "This mod brings back KarL, the hidden developer test car from older versions of the game.\n\n\n\nYou should be able to find KarL spawning at buildings, but he will be rather rare.\nKarl has been set up so that he works with the AI Traffic mod, so you should see him driving around again if you have that mod too :)\nKarL has also been added to the item database, so you should also be able to spawn Karl from most Spawn Menu mods! ",
		 "Date": "25/09/2022",
		 "Link": "https://gitlab.com/KolbenLP/WorkshopTLDMods/-/raw/WorkshopDatabase8.5/karl.dll", 
		 "PictureLink": "https://gitlab.com/KolbenLP/WorkshopTLDMods/-/raw/WorkshopDatabase8.5/picture/karl.png",
		 "FileName": "RUNDEN_KARL.dll",
		 "Category": "Vehicles"
     },
	  {
		"Name": "[LEGACY] Diesel Engines 1.9TDi edition ",
		 "Version": "1.9.2.2",
		 "Author": "NICULL",
		 "Description": "This mod adds faster versions of the diesel 2105 and dacia engines, designed to be used with the 2104/2107 estate and dacia break mod.\n\n2105 engine:\n-Makes 185nm of torque @3k rpm\n-oil tank capacity increased to 6L\n-uses 0.1L of oil every 60 seconds\n-maxes out at 6k rpm\n-starts slower\n-Can reach a max temp of 150c\n\nDacia engine:\n-makes 165nm of torque at @3.5k rpm\n-oil tank capacity increased to 5.8L\n-uses 0.1L of oil every 90 seconds.\n-maxes out at 5.8k rpm\n-starts slower\n-can reach max temp of 140c",
		 "Date": "25/09/2022",
		 "Link": "https://gitlab.com/KolbenLP/WorkshopTLDMods/-/raw/WorkshopDatabase8.5/1.9tdi.dll", 
		 "PictureLink": "https://gitlab.com/KolbenLP/WorkshopTLDMods/-/raw/WorkshopDatabase8.5/picture/1.9tdi.png",
		 "FileName": "NICULL_DIESEL_1.9tdi.dll",
		 "Category": "LEGACY"
     },
	  {
		"Name": "Diesel Truck V8 [LEGACY]",
		 "Version": "1.0",
		 "Author": "NICULL",
		 "Description": "The Diesel V8 mod, is an edit of the diesel cars mod by Ghaleas and Runden.\n\nI was given permission by them to use some of the code to make this diesel version of the brand new V8 in the game.\n\n-It idles at 700 rpm and it maxes out at 5250 rpm with a top speed of 170 - 185 kmh\n-If you use it in the ifa truck it can go up to 215 kmh \n-Increased oil capacity to 7.5L\n-Increased oil consumption\n\nCurrently it does not more torque than the gas engine because i don't know how to do that yet but maybe in a later update.\n\n1.3.1 version Changelog:\n-Fixed loading save bug, no longer converts your gas engine to this diesel one.\n-Updated colors, it's slightly lighter now with more.. chrome.\n-Completely different torquecurve compared to the gas fury engine\n-7.5L Oil capacity\n-850Nm of torque at 3000Rpm!",
		 "Date": "17/09/2022",
		 "Link": "https://gitlab.com/KolbenLP/WorkshopTLDMods/-/raw/WorkshopDatabase8.5/NICULL_DIESEL_TRUCK_V8.dll", 
		 "PictureLink": "https://gitlab.com/KolbenLP/WorkshopTLDMods/-/raw/WorkshopDatabase8.5/picture/v8truck.png",
		 "FileName": "NICULL_DIESEL_TRUCK_V8.dll",
		 "Category": "LEGACY"
     },
	  {
		"Name": "Ladder mod",
		 "Version": "1.1",
		 "Author": "RUNDEN",
		 "Description": "it adds ladders",
		 "Date": "30/08/2022",
		 "Link": "https://gitlab.com/KolbenLP/WorkshopTLDMods/-/raw/WorkshopDatabase8.5/ladder.dll", 
		 "PictureLink": "https://gitlab.com/KolbenLP/WorkshopTLDMods/-/raw/WorkshopDatabase8.5/picture/ladder.png",
		 "FileName": "RUNDEN_Ladder.dll",
		 "Category": "Items"
     },
	   {
		"Name": "Extra Badges",
		 "Version": "1.2",
		 "Author": "Tumpy_Noodles",
		 "Description": "REQUIRES BADGE MOD TO FUNCTION. THIS IS JUST THE ASSETS.\n\n-An extra 120 Badges. Some new, most are just variations. \n-These badges use the same attachables as the base mod. So if you used that mod before expect your badges to get shuffled. ",
		 "Date": "30/08/2022",
		 "Link": "https://gitlab.com/KolbenLP/WorkshopTLDMods/-/raw/WorkshopDatabase8.5/badgesextra.zip", 
		 "PictureLink": "https://gitlab.com/KolbenLP/WorkshopTLDMods/-/raw/WorkshopDatabase8.5/picture/badgesextra.png",
		 "FileName": "BadgesExtra.dll",
		 "Category": "Items"
     },
	  {
		"Name": "Badges",
		 "Version": "1.2",
		 "Author": "Tumpy_Noodles",
		 "Description": "- 155 Badges to customize your car (Or rubber wife).\n\n- Includes the proper badges for every car currently in game and the mods. (Except 1 I forgot about) All scaled properly.\n- Replaces the Attachables in game. Currently 02 03 and 06\n- Categorized for easy spawning. Car badges-06. # & Symbols-03. Miscellanous-02.\n- Found in Garages, Gus Gas, Diners often just check around everywhere.\n\nKnown Issues:\n1. Anything stuck directly to a badge will shift when reloaded.\n2. Sometimes normal attachables will become frozen. Just unattach and reattach.\n3. Sometimes it's hard to get badges in the right spot or they clip through the car cause of wonky car collision. (Can't be fixed)\n\nP.S. This mod took 5 months to complete... \n\nChanglog:\n-    Attachables now spawn in broken crates!!!!!!!!!!!!!!!!!!!!!! \n-    Might need to update crate mod for it to work!!!\n-    Removed collision that stopped some badges being glued under cursor\n-    Larger # and symbol size!!! So easier to find\n-    Play Button and Infinity scaled up\n-    Dacia logo scale is more accurate. It will be harder to find now 😦\n-    V8 ford origin was in middle of badge\n-    Penis had holes hehe\n-    Jizzy penis had wrong facing faces\n-    Milky tits had bad collision\n-    22r and 22re was in normal render\n-    22r had hole\n-    Powered and By: had wrong facing faces",
		 "Date": "30/08/2022",
		 "Link": "https://gitlab.com/KolbenLP/WorkshopTLDMods/-/raw/WorkshopDatabase8.5/badges.zip", 
		 "PictureLink": "https://gitlab.com/KolbenLP/WorkshopTLDMods/-/raw/WorkshopDatabase8.5/picture/badges.png",
		 "FileName": "Tumpy_Badges.dll",
		 "Category": "Items"
     },
	  {
		"Name": "Custom Tachometer for the Golf",
		 "Version": "1.0",
		 "Author": "ELS",
		 "Description": "Yea self explaining too.",
		 "Date": "28/07/2022",
		 "Link": "https://gitlab.com/KolbenLP/WorkshopTLDMods/-/raw/WorkshopDatabase8.5/TachCo.dll", 
		 "PictureLink": "https://gitlab.com/KolbenLP/WorkshopTLDMods/-/raw/WorkshopDatabase8.5/picture/golftacho.png",
		 "FileName": "TachCo.dll",
		 "Category": "Vehicles"
     },
	  {
		"Name": "Hardcore Snowman Mod",
		 "Version": "1.0",
		 "Author": "KolbenLP, RUNDEN",
		 "Description": "DO NOT USE WITH RUNDENS SNOWMAN MOD!\n\nThis mod takes RUNDENs Snowman mod and makes all the Snowman angryyyy.",
		 "Date": "28/07/2022",
		 "Link": "https://gitlab.com/KolbenLP/WorkshopTLDMods/-/raw/WorkshopDatabase8.5/RUNDEN_Snowman_HARDCOREE.dll", 
		 "PictureLink": "",
		 "FileName": "RUNDEN_Snowman_HARDCOREE.dll",
		 "Category": "NPC"
     },
	  {
		"Name": "Custom Posters",
		 "Version": "1.2",
		 "Author": "FreakShow",
		 "Description": "Place your own pictures in  Documents/TheLongDrive/Mods/Assets/CustomPosters\n\nInclude in the file name  portable   house  longbus  or shortbus.\n\nFeatures:\n- Portable and attachable Posters! Put them anywhere\n- Images can be of any size, the poster size will adapt\n- Poster size is also slightly randomized\n- For the fixed posters at the house and bus its best to use the recommended sizes\n- Starter house poster will refresh after save + reload\n\nYou will find posters normally in the wild. But since it was asked they replace severed arms.\nCurrently completely removes 95% of arms from the game\n\nFixed:  Posters can now be attached even if they are blocking the view / crosshairs\nFixed:  other stuff attached to posters won't enlarge,  and stays visible after reload",
		 "Date": "31/07/2022",
		 "Link": "https://gitlab.com/KolbenLP/WorkshopTLDMods/-/raw/WorkshopDatabase8.5/CustomPosters.zip", 
		 "PictureLink": "https://gitlab.com/KolbenLP/WorkshopTLDMods/-/raw/WorkshopDatabase8.5/picture/CustomPosters.png?inline=false",
		 "FileName": "CustomPosters.dll",
		 "Category": "Cosmetic"
     },
	  {
		"Name": "Mutant Monster",
		 "Version": "1.0",
		 "Author": "Bec",
		 "Description": "Will Spawn a Monster that will chase the player or something like that..\n\n Needs a game restart every reload! Kinda buggy.",
		 "Date": "28/07/2022",
		 "Link": "https://gitlab.com/KolbenLP/WorkshopTLDMods/-/raw/WorkshopDatabase8.5/MutantMonster.zip", 
		 "PictureLink": "https://gitlab.com/KolbenLP/WorkshopTLDMods/-/raw/WorkshopDatabase8.5/picture/monster.png?inline=false",
		 "FileName": "MutantMonster.dll",
		 "Category": "NPC"
     },
	  {
		"Name": "No Bunny's / FPS Increase",
		 "Version": "1.0",
		 "Author": "FreakShow",
		 "Description": "- Disables the bunny spawning script so new bunnies will not spawn in.\n- Already spawned bunnies will not be deleted. :'( \n- Helps with FPS. Especially on lower end machines.",
		 "Date": "28/07/2022",
		 "Link": "https://gitlab.com/KolbenLP/WorkshopTLDMods/-/raw/WorkshopDatabase8.5/no_buns.dll", 
		 "PictureLink": "https://gitlab.com/KolbenLP/WorkshopTLDMods/-/raw/WorkshopDatabase8.5/picture/no_buns.png?inline=false",
		 "FileName": "no_buns.dll",
		 "Category": "NPC"
     },
	  {
		"Name": "Indicator Mod",
		 "Version": "1.0",
		 "Author": "anonymous",
		 "Description": "Just some Indicators on the cars - Does not work with the dacia break mod! \n\n-Press Period",
		 "Date": "28/07/2022",
		 "Link": "https://gitlab.com/KolbenLP/WorkshopTLDMods/-/raw/WorkshopDatabase8.5/RUNDEN_INDICATORS.dll", 
		 "PictureLink": "",
		 "FileName": "RUNDEN_INDICATORS.dll",
		 "Category": "Vehicles"
     },
	  {
		"Name": "Realistic Automatic Transmissions",
		 "Version": "1.1",
		 "Author": "anonymous",
		 "Description": "Adds some smooth, nice Automatic Transmissions to almost any car in the game. There is a random chance for a Car to have such a Transmission.",
		 "Date": "28/07/2022",
		 "Link": "https://gitlab.com/KolbenLP/WorkshopTLDMods/-/raw/WorkshopDatabase8.5/RUNDENautomatic.dll", 
		 "PictureLink": "",
		 "FileName": "RUNDENautomatic.dll",
		 "Category": "Vehicles"
     },
	  {
		"Name": "Buttons for Ignition and Horn, MSC Style",
		 "Version": "1.0",
		 "Author": "NICULL",
		 "Description": "Adds Buttons for the Ignition and Horn, like the game MSC has baked in.",
		 "Date": "28/07/2022",
		 "Link": "https://gitlab.com/KolbenLP/WorkshopTLDMods/-/raw/WorkshopDatabase8.5/NICULL_Ignition_Barrel.dll", 
		 "PictureLink": "",
		 "FileName": "NICULL_Ignition_Barrel.dll",
		 "Category": "Vehicles"
     },
	  {
		"Name": "Fuel Gauges",
		 "Version": "1.0",
		 "Author": "FreakShow / Chaaos",
		 "Description": "Adds some new Fuel Gauges. Simple\n\n-  Can be found as loot,  attaches anywhere\n- Improves on the vanilla Fuel Gauges (always shows accurate tank content in any car, unlike vanilla ones)\n- Different backlights (overall they are dimmer and there are different colours)\n- Spawn rate slightly lower than the custom tachometers,  higher than temperature gauges\n- Low Fuel LED  and Sound Chime\n- About 19 different gauges to collect  +  one special edition :>",
		 "Date": "28/07/2022",
		 "Link": "https://gitlab.com/KolbenLP/WorkshopTLDMods/-/raw/WorkshopDatabase8.5/FuelGuages.zip", 
		 "PictureLink": "https://gitlab.com/KolbenLP/WorkshopTLDMods/-/raw/WorkshopDatabase8.5/picture/fuelgauges.png?inline=false",
		 "FileName": "FuelGuages.dll",
		 "Category": "Items"
     },
	  {
		"Name": "New Tires from MSC",
		 "Version": "1.0",
		 "Author": "Jessica",
		 "Description": "Adds the tires from the game My Summer Car. Can be buggy at times.",
		 "Date": "28/07/2022",
		 "Link": "https://gitlab.com/KolbenLP/WorkshopTLDMods/-/raw/WorkshopDatabase8.5/Serenas_MSC_Tires.zip", 
		 "PictureLink": "https://gitlab.com/KolbenLP/WorkshopTLDMods/-/raw/WorkshopDatabase8.5/picture/Serenas_MSC_Tires.png?inline=false",
		 "FileName": "SERENA_MSC_TIRES.dll",
		 "Category": "Items"
     },
	  {
		"Name": "Hitch for the Caddy",
		 "Version": "1.0",
		 "Author": "Jessica",
		 "Description": "Self explaining.",
		 "Date": "28/07/2022",
		 "Link": "https://gitlab.com/KolbenLP/WorkshopTLDMods/-/raw/WorkshopDatabase8.5/SERENA_CADDYHITCH.dll", 
		 "PictureLink": "https://gitlab.com/KolbenLP/WorkshopTLDMods/-/raw/WorkshopDatabase8.5/picture/SERENA_CADDYHITCH.png?inline=false",
		 "FileName": "SERENA_CADDYHITCH.dll",
		 "Category": "Vehicles"
     },
	  {
		"Name": "Licenceplate Printer",
		 "Version": "1.0",
		 "Author": "RUNDEN",
		 "Description": "It goess brrooooooom\n\nFind a printer, attach it to a computer, and enter the PLATE command. Place a numberplate into the printer, and you can edit it!",
		 "Date": "28/07/2022",
		 "Link": "https://gitlab.com/KolbenLP/WorkshopTLDMods/-/raw/WorkshopDatabase8.5/PlatePrinter.zip",
		 "PictureLink": "https://gitlab.com/KolbenLP/WorkshopTLDMods/-/raw/WorkshopDatabase8.5/picture/plate.png?inline=false",
		 "FileName": "RUNDEN_Plate_Edit.dll",
		 "Category": "Vehicles"
     },
	    {
		"Name": "MORE BUILDINGS",
		 "Version": "1.0",
		 "Author": "anonymous",
		 "Description": "Adds custom Buildings to the game. For example a park house with. \n\n Can cause FPS issues upon loading a Building ingame.",
		 "Date": "28/07/2022",
		 "Link": "https://gitlab.com/KolbenLP/WorkshopTLDMods/-/raw/WorkshopDatabase8.5/RundenBuildings.zip",
		 "PictureLink": "",
		 "FileName": "RundenBuildings.dll",
		 "Category": "Buildings"
     },
	  {
		"Name": "LADA VAZ 2107",
		 "Version": "0.99917738725572873673873",
		 "Author": "anonymous",
		 "Description": "Adds the Lada 2107 to the game.",
		 "Date": "28/07/2022",
		 "Link": "https://gitlab.com/KolbenLP/WorkshopTLDMods/-/raw/WorkshopDatabase8.5/2107.zip",
		 "PictureLink": "",
		 "FileName": "LADA_VAZ2107_RUNDEN.dll",
		 "Category": "Vehicles"
     },
	   {
		"Name": "Lampposts, but sideways?",
		 "Version": "1.0",
		 "Author": "anonymous",
		 "Description": "Why would you want that?",
		 "Date": "28/07/2022",
		 "Link": "https://gitlab.com/KolbenLP/WorkshopTLDMods/-/raw/WorkshopDatabase8.5/Lampost_MOD.dll",
		 "PictureLink": "https://gitlab.com/KolbenLP/WorkshopTLDMods/-/raw/WorkshopDatabase8.5/picture/Lampost_MOD.png?inline=false",
		 "FileName": "Lampost_MOD.dll",
		 "Category": "Gameplay"
     },
	  {
		"Name": "Gangster Bunnys..",
		 "Version": "1.0",
		 "Author": "anonymous",
		 "Description": "What are they hacking out? They want to get you!",
		 "Date": "28/07/2022",
		 "Link": "https://gitlab.com/KolbenLP/WorkshopTLDMods/-/raw/WorkshopDatabase8.5/RUNDEN_GANGSTER_BUNNY.dll",
		 "PictureLink": "",
		 "FileName": "RUNDEN_GANGSTER_BUNNY.dll",
		 "Category": "NPC"
     },
	  {
		"Name": "Stronk Sandstorms",
		 "Version": "1.0",
		 "Author": "anonymous",
		 "Description": "WHOOOSH!",
		 "Date": "28/07/2022",
		 "Link": "https://gitlab.com/KolbenLP/WorkshopTLDMods/-/raw/WorkshopDatabase8.5/RUNDEN_Stronger_Sandstorms.dll",
		 "PictureLink": "",
		 "FileName": "RUNDEN_Stronger_Sandstorms.dll",
		 "Category": "Gameplay"
     },
	  {
		"Name": "Breakable Rocks",
		 "Version": "1.0",
		 "Author": "anonymous",
		 "Description": "Rocks are breakable now. You can drive them over!",
		 "Date": "28/07/2022",
		 "Link": "https://gitlab.com/KolbenLP/WorkshopTLDMods/-/raw/WorkshopDatabase8.5/RUNDEN_BREAKABLE_ROCKS.dll",
		 "PictureLink": "",
		 "FileName": "RUNDEN_BREAKABLE_ROCKS.dll",
		 "Category": "Gameplay"
     },
	  {
		"Name": "WheelPositionEditor",
		 "Version": "1.0",
		 "Author": "RUNDEN",
		 "Description": "Allows you to change the suspension and position of the wheels on your car and some other aspects of it.\nUse SCROLLLOCK to open, Arrow Keys to operate.\n\n\nPlease note, this mod writes data to your save file, but it should be unobtrusive and shouldn't cause issues after the mod is removed",
		 "Date": "28/07/2022",
		 "Link": "https://gitlab.com/KolbenLP/WorkshopTLDMods/-/raw/WorkshopDatabase8.5/RundensWheelPositionEditor.dll",
		 "PictureLink": "https://gitlab.com/KolbenLP/WorkshopTLDMods/-/raw/WorkshopDatabase8.5/picture/wpe.png?inline=false",
		 "FileName": "RundensWheelPositionEditor.dll",
		 "Category": "Gameplay"
     },
	  {
		"Name": "Multiple engines on one Vehicle",
		 "Version": "1.0",
		 "Author": "anonymous",
		 "Description": "Use Baskets or Physicslock mod to put more than one engine on your car. \n\nBut dont use 2 engines, it can get really buggy with only two.",
		 "Date": "28/07/2022",
		 "Link": "https://gitlab.com/KolbenLP/WorkshopTLDMods/-/raw/WorkshopDatabase8.5/uhhhh_mod_that_lets_you_engine.dll",
		 "PictureLink": "",
		 "FileName": "uhhhh_mod_that_lets_you_engine.dll",
		 "Category": "Gameplay"
     },
	    {
		"Name": "Throttle Brick Mod",
		 "Version": "1.0",
		 "Author": "anonymous",
		 "Description": "Simply adds the functionality to shit out a Brick and place it on your throttle, basically cruise control... ",
		 "Date": "28/07/2022",
		 "Link": "https://gitlab.com/KolbenLP/WorkshopTLDMods/-/raw/WorkshopDatabase8.5/RUNDEN_BRICK.dll",
		 "PictureLink": "",
		 "FileName": "RUNDEN_BRICK.dll",
		 "Category": "Gameplay"
     },
	  {
		"Name": "NoUFO",
		 "Version": "0.1",
		 "Author": "Encolumned",
		 "Description": "You ever want to just relax on the side of the road? Not live in fear of a sudden presence of a large green light moving over you while being stranded and out of gas? Want to sleep knowing you won't be struck harder than an atomic bomb by a circular red flying disc that swoops down like an eagle and rapidly eats your progress away like a desert vulture? Do you hate when your radio is cut off and interrupted? Ever find the level of interruption annoying, or just too loud? Are you satisfied with the sounds of peace and quiet? The wind whirring as you drive your car, clean or not, down a finite, deserted, asphalt-covered treasure trove? The faint lyrics to 'My Baby Has a White Škoda as you sleep in the bed of a nice, comfortable bunker? The audible arguments between the hosts of SteelPants Radio and Neon Synth playing over the radio?\n\nWELL BOY CAN THESE 2 LINES OF CODE BE POWERFUL\nIt is rather self explanatory. \nCurrently no future plans unless the mod unsuspectingly breaks or does not work.\n\n- - - - -\nChangelog:\n0.1: Release\n- - - - -\nCredits:\nFreakShow - helping during creation\n(1 contributor has chosen to remain anonymous, respectfully) ",
		 "Date": "20/07/2022",
		 "Link": "https://gitlab.com/KolbenLP/WorkshopTLDMods/-/raw/WorkshopDatabase8.5/NoUFO.dll",
		 "PictureLink": "https://gitlab.com/KolbenLP/WorkshopTLDMods/-/raw/WorkshopDatabase8.5/picture/NoUFO.png",
		 "FileName": "NoUFO.dll",
		 "Category": "Gameplay"
     },
	  {
		"Name": "Zombies mod",
		 "Version": "1.1",
		 "Author": "RUNDEN",
		 "Description": "Adds Zombies to the game.",
		 "Date": "03/09/2022",
		 "Link": "https://gitlab.com/KolbenLP/WorkshopTLDMods/-/raw/WorkshopDatabase8.5/RUNDEN_Zombie.dll",
		 "PictureLink": "https://gitlab.com/KolbenLP/WorkshopTLDMods/-/raw/WorkshopDatabase8.5/picture/RUNDEN_Zombie.png",
		 "FileName": "RUNDEN_Zombie.dll",
		 "Category": "NPC"
     },
{
		"Name": "Snowman Mod",
		 "Version": "1.0",
		 "Author": "RUNDEN",
		 "Description": " - This mod brings back the original snowmen which the game used to have in the winter areas in the Christmas 2019 update, long long ago\n- Their functionality has been replicated to be as accurate as possible to the original snowmen in that old version of the game, but bought into this latest version :)\n- The snowmen should spawn in winter biomes in mixed mode, but most fun can be had by switching to Winter biome in the menu.\n- Snowmen are inaninmate objects and will never pose a threat to you and, in fact, cannot harm you in any way.\n- These snowmen are normal snowmen and are not in any way evil nor planning and/or plotting to murder you.",
		 "Date": "07/07/2022",
		 "Link": "https://gitlab.com/KolbenLP/WorkshopTLDMods/-/raw/WorkshopDatabase8.5/RUNDEN_Snowmen.dll",
		 "PictureLink": "https://gitlab.com/KolbenLP/WorkshopTLDMods/-/raw/WorkshopDatabase8.5/picture/RUNDEN_snowman.png",
		 "FileName": "RUNDEN_Snowman.dll",
		 "Category": "NPC"
     },
{
		"Name": "NoDevConsoleMULTIPLAYER ONLY",
		 "Version": "1.0",
		 "Author": "RUNDEN",
		 "Description": "simple mod which tries it's absolute best to hide the development console for when you're on the multiplayer build",
		 "Date": "05/07/2022",
		 "Link": "https://gitlab.com/KolbenLP/WorkshopTLDMods/-/raw/WorkshopDatabase8.5/RUNDENnoconsole.dll",
		 "PictureLink": "https://gitlab.com/KolbenLP/WorkshopTLDMods/-/raw/WorkshopDatabase8.5/picture/NoErrors.png",
		 "FileName": "RUNDENnoconsole.dll",
		 "Category": "GUI"
     },
{
		"Name": "Cruise Control for all Cars",
		 "Version": "1.0",
		 "Author": "FreakShow",
		 "Description": "Early release of  commonly  requested  Cruise Control.\nPress  ENTER  to set  the Cruise.",
		 "Date": "05/07/2022",
		 "Link": "https://gitlab.com/KolbenLP/WorkshopTLDMods/-/raw/WorkshopDatabase8.5/cruise.dll",
		 "PictureLink": "https://gitlab.com/KolbenLP/WorkshopTLDMods/-/raw/WorkshopDatabase8.5/picture/cruise.png",
		 "FileName": "cruise.dll",
		 "Category": "Gameplay"
     },
	 {
		"Name": "Physlock For All Cars",
		 "Version": "1.0",
		 "Author": "Jessica",
		 "Description": "Car interiors, including trunks and the pickup bed, will now have the physics lock functionality applied to them! This effect only applies to CARS, so the IFA and the buses are excluded.\nNote that it may sometimes lock items on the exterior of some of the vehicles as well due to technical limitations.",
		 "Date": "10/10/2021",
		 "Link": "https://gitlab.com/KolbenLP/WorkshopTLDMods/-/raw/WorkshopDatabase8.5/SERENA_CARPHYSLOCK.dll",
		 "PictureLink": "https://gitlab.com/KolbenLP/WorkshopTLDMods/-/raw/WorkshopDatabase8.5/picture/allphyslock.png",
		 "FileName": "SERENA_CARPHYSLOCK.dll",
		 "Category": "Gameplay"
     },

{
		"Name": "Custom Radio Song Skip",
		 "Version": "1.0",
		 "Author": "FreakShow",
		 "Description": "Look at a Radio  or Dashboard  = Press PageUp / PageDown",
		 "Date": "25/06/2022",
		 "Link": "https://gitlab.com/KolbenLP/WorkshopTLDMods/-/raw/WorkshopDatabase8.5/skip.dll",
		 "PictureLink": "https://gitlab.com/KolbenLP/WorkshopTLDMods/-/raw/WorkshopDatabase8.5/picture/skip.png",
		 "FileName": "skip.dll",
		 "Category": "Gameplay"
     },
{
		"Name": "No SleepCooldown",
		 "Version": "1.0",
		 "Author": "KolbenLP",
		 "Description": "Its simple - Sleep whenever you want!",
		 "Date": "27/05/2022",
		 "Link": "https://gitlab.com/KolbenLP/WorkshopTLDMods/-/raw/WorkshopDatabase8.5/NoSleepCooldown.dll",
		 "PictureLink": "https://gitlab.com/KolbenLP/WorkshopTLDMods/-/raw/WorkshopDatabase8.5/picture/NoSleepCooldown.png",
		 "FileName": "NoSleepCooldown.dll",
		 "Category": "Gameplay"
     },
{
		"Name": "Simple GUI Gauge Mod",
		 "Version": "1.0",
		 "Author": "xspeedasx",
		 "Description": "This mod adds an analog UI gauge, similar to BeamNG drive and other games.\nIt is only visible when player is sitting in a car (inside and exterior cameras)\n\n it was not tested in multiplayers, so keep expectations low \n\n* Left gauge is fuel (fluid in the tank), \n* Right is temperature (C is 50C/122F, H is 130C/266F)\n* Big gauge is RPM (it shows a little bit more than engine's max RPM capability)\n* The numbers are Speed (km/h) in the top and Gear in the bottom\n* Icons are: left - handbrake, right - lights",
		 "Date": "5/05/2022",
		 "Link": "https://gitlab.com/KolbenLP/WorkshopTLDMods/-/raw/WorkshopDatabase8.5/gauge.zip",
		 "PictureLink": "https://gitlab.com/KolbenLP/WorkshopTLDMods/-/raw/WorkshopDatabase8.5/picture/gauge.png",
		 "FileName": "SimpleUIGaugeMod.dll",
		 "Category": "GUI"
     },
{
		"Name": "Electric Motors Mod ",
		 "Version": "1.1",
		 "Author": "xspeedasx",
		 "Description": "This mod adds electric motors to The Long Drive that can be mounted to any vehicle instead of internal combustion engines.\n\nSome useful information:\n* There are 5 performance variants, revving from 10,000 (cyan) to 20,000 rpm (red)!\n* Its not required, but advisable to add water to both radiator and fuel tank to cool the motor.\n* Vehicles won't use any gas, oil or diesel, but there must be something in the tank due to TLD limitations (Genesz pls fix).Changelog:\n-Added compatibility with the VeeAyteEnjin a.k.a. Jessica's V8\n- Improved compatibility with the RUNDENautomatic mod - allows motors to have multiple gears when car is automatic.\n- Gave more juice to BUS (400%), IFA (400%) and Fury (150%), but also more heat gain - it's still quite unbalanced and needs more tweaking\n- Removed unnecessary shameful code left over from weeks of debugging\n\n* tip: To go forwards in automatic, first set gear lever to R position, reach ~20km/h in reverse and start mashing gears all the way from P to 1 and back few times, until it locks into 1, then choose D and accelerate. ",
		 "Date": "3/05/2022",
		 "Link": "https://gitlab.com/KolbenLP/WorkshopTLDMods/-/raw/WorkshopDatabase8.5/electric.zip",
		 "PictureLink": "https://gitlab.com/KolbenLP/WorkshopTLDMods/-/raw/WorkshopDatabase8.5/picture/electric.png",
		 "FileName": "ElectricMotorMod.dll",
		 "Category": "Engines"
     },
{
		"Name": "BeanMG.drive Caravan Mod!",
		 "Version": "2.2",
		 "Author": "RUNDEN",
		 "Description": "This mod adds the caravan from BeamNG into the game :)\n\nThere is a bug where caravans that spawn with wheels may disappear when you load! Look for caravans that spawn without wheels\n\nNew in version 2.2:\n- Caravans have conditions\n- Can now be repaired with wire brush\n- There is interior noise dampening when inside the caravan\n- Caravan interior is physlocked if you have the physlock mod\n- The trailer hitch stand thing now works and can be used to lock the trailer in place\n- You can actually sit and sleep in the seats!\n- The table has collisions for props\n- Working water taps !\n- More opening panels\n- Randomised parts (some caravans don't have AC or don't have the flap on the front)\n- The caravan can be broken! (It'll fall to a billion pieces if you crash insanely hard)",
		 "Date": "3/05/2022",
		 "Link": "https://gitlab.com/KolbenLP/WorkshopTLDMods/-/raw/WorkshopDatabase8.5/caravan.zip",
		 "PictureLink": "https://gitlab.com/KolbenLP/WorkshopTLDMods/-/raw/WorkshopDatabase8.5/picture/caravan.png",
		 "FileName": "BEAMNG_CARAVAN.dll",
		 "Category": "Vehicles"
     },
{
		"Name": "SpawnerTLD Pause Menu",
		 "Version": "5.3",
		 "Author": "FreakShow",
		 "Description": "You can spawn cars anywhere \nFirst mod with GUI \n\"Distance driven\" must be over 1000km then mod start working\n\nShows up in the ESC Menu\nAlso, in Dev tools you can enable  to delete objects....\n\nAdded in 5.3:\n- Colour selection preview\n- Randomized full car conditions\n- new car shortcuts\n- Show / hide spawner  button",
		 "Date": "19/03/2022",
		 "Link": "https://gitlab.com/KolbenLP/WorkshopTLDMods/-/raw/WorkshopDatabase8.5/spawneresc.dll",
		 "PictureLink": "https://gitlab.com/KolbenLP/WorkshopTLDMods/-/raw/WorkshopDatabase8.5/picture/spawneresc.png",
		 "FileName": "SpawnerTLD.dll",
		 "Category": "Cheats"
     },
{
		"Name": "Eternal day time",
		 "Version": "1.0",
		 "Author": "Zorkind",
		 "Description": "imagine the planet stopped spinning and that caused the apocalypses heheh or whatever\n\nMight spawn 99999 UFO's or something. Have fun! Its a bug\n\n If its still turns night, reload your save. Its a bug too",
		 "Date": "11/03/2022",
		 "Link": "https://gitlab.com/KolbenLP/WorkshopTLDMods/-/raw/WorkshopDatabase8.5/daycycle.dll",
		 "PictureLink": "https://gitlab.com/KolbenLP/WorkshopTLDMods/-/raw/WorkshopDatabase8.5/picture/daycycle.png",
		 "FileName": "ETERNALDAY_ZORKIND.dll",
		 "Category": "Gameplay"
     },
{
		"Name": "Diesel V8 Engine [LEGACY]",
		 "Version": "1.3.4.2",
		 "Author": "NICULL /Thanks to xspeedasx",
		 "Description": "The Diesel V8 mod, is an edit of the diesel cars mod by Ghaleas and Runden.\n I was given permission by them to use some of the code to make this diesel version of the brand new V8 in the game.\n\n-It idles at 700 rpm and it maxes out at 5250 rpm with a top speed of 170 - 185 kmh\n-If you use it in the ifa truck it can go up to 215 kmh \n-Increased oil capacity to 7.5L\n-Increased oil consumption\n\nCurrently it does not more torque than the gas engine because i don't know how to do that yet but maybe in a later update.\n\n1.3.1 version Changelog:\n-Fixed loading save bug, no longer converts your gas engine to this diesel one.\n-Updated colors, it's slightly lighter now with more.. chrome.\n-Completely different torquecurve compared to the gas fury engine\n-7.5L Oil capacity\n\n1.3.4\n-550Nm of torque at 2000Rpm!",
		 "Date": "6/03/2022",
		 "Link": "https://gitlab.com/KolbenLP/WorkshopTLDMods/-/raw/WorkshopDatabase8.5/dieselv8.dll",
		 "PictureLink": "https://gitlab.com/KolbenLP/WorkshopTLDMods/-/raw/WorkshopDatabase8.5/picture/dieselv8.png",
		 "FileName": "NICULL_DIESEL_V8.dll",
		 "Category": "LEGACY"
     },
{
		"Name": "Hardcore Mod",
		 "Version": "1.4.7.1",
		 "Author": "NICULL & RUNDEN",
		 "Description": "Changelog:\n-Gas, diesel, oil consumption is increased. (Diesel is still more efficient than gas but not as much)\n-Water Consumption is increased by 5x\n-Radiators are 30% less efficient\n-You can now loose gears if you don't shift properly\n-Street lights spawn on random sides of the road, some are leaning and some flicker.\n-Every fluid you spawn with, even you hunger and health is now halved at the start of the game\n-Maximum operating temperatures of engines is now 125 Degrees Celsius (or 257 fahrenheit)\n-Starting chance of cars is lowered\n-Fixed losing fluids really fast bug \n18/9/2022 Silent patch\n-Changed mod version to one without fluid loss speed to avoid confusion, will not fix the old version any time soon it was an experimental feature.",
		 "Date": "4/03/2022",
		 "Link": "https://gitlab.com/KolbenLP/WorkshopTLDMods/-/raw/WorkshopDatabase8.5/hc1.dll",
		 "PictureLink": "https://gitlab.com/KolbenLP/WorkshopTLDMods/-/raw/WorkshopDatabase8.5/picture/hc1.png",
		 "FileName": "NICULL_HARDCORE_MOD.dll",
		 "Category": "Gameplay"
     },
{
		"Name": "Spoilers for Golf",
		 "Version": "1.0",
		 "Author": "NICULL",
		 "Description": "Self explaining.\n\nAdds nice spoilers for the Golf!\n\nunlike popular belief no it does not add 42069 horsepower. It's just the dacia spoiler on the golf hatch trunk.",
		 "Date": "4/03/2022",
		 "Link": "https://gitlab.com/KolbenLP/WorkshopTLDMods/-/raw/WorkshopDatabase8.5/golfsp.dll",
		 "PictureLink": "https://gitlab.com/KolbenLP/WorkshopTLDMods/-/raw/WorkshopDatabase8.5/picture/golfsp.png",
		 "FileName": "NICULL_GOLFSPOILER_MOD.dll",
		 "Category": "Items"
     },
{
		"Name": "Dacia 1300 Break",
		 "Version": "1.0",
		 "Author": "Tumpy_Noodles / RUNDEN",
		 "Description": "Dacia Kombi/Wagon!!!! v1.0\nShares parts with normal Dacia except trunk. \nAvailable in automatic and RHD with manuals being a 5 speed. \nRear seat is completely removable and it will snap in the right spot when placed near it by just letting go.  \n\nKnown Issues:\n1. Newly spawned Dacias and Dacia Kombis such as starting car, ai cars, and spawner cars might have the wrong trunk attached. It should be fixed by saving and loading. Naturally spawning cars shouldn't do this.\n2. License plate will rotate downward when reloaded. You can unattach it and reattach it to correct it.\n3. The car will sometimes clip into the ground and suddenly stop, registering as a crash. The normal Dacia does this and is a problem with the base game. The Dacia Kombi has some steps done to mitigate this but it will still happen on rough terrain.\n4. Baskets and possibly other things attached to the back seat will coerge towards the middle of the seat. This is a byproduct of the seat being removeable.",
		 "Date": "24/02/2022",
		 "Link": "https://gitlab.com/KolbenLP/WorkshopTLDMods/-/raw/WorkshopDatabase8.5/daciabreak.dll",
		 "PictureLink": "https://gitlab.com/KolbenLP/WorkshopTLDMods/-/raw/WorkshopDatabase8.5/picture/daciabreak.png",
		 "FileName": "Dacia1300Break.dll",
		 "Category": "Vehicles"
     },
{
		"Name": "Updated Iron sights Mod",
		 "Version": "1.1",
		 "Author": "RUNDEN",
		 "Description": "This is the version of the mod that works in the current version game version. \nThis update was posted by Runden, the original author is not in the server anymore.",
		 "Date": "6/01/2022",
		 "Link": "https://gitlab.com/KolbenLP/WorkshopTLDMods/-/raw/WorkshopDatabase8.5/iron.dll",
		 "PictureLink": "https://gitlab.com/KolbenLP/WorkshopTLDMods/-/raw/WorkshopDatabase8.5/picture/iron.png",
		 "FileName": "IRON_SIGHTS_MOD.dll",
		 "Category": "Items"
     },
         {
		"Name": "V8 Gas Engine",
		 "Version": "1.4aR",
		 "Author": "Jessica",
		 "Description": "A powerful V8 engine that comes in varying sizes, from 4.6L to 7.2L! Bigger engine = more power, but also more fuel consumption.\n\nImportant notes:\nYou'll have a 25% chance to find this engine as a Lada 2101/2102 engine replacement, so it's a bit rare.\nTurbo's can work but may actually make the engine perform worse, use at your own risk!\n\nSound volume now conforms to the ingame slider and turbo's no longer become ",
		 "Date": "6/01/2022",
		 "Link": "https://gitlab.com/KolbenLP/WorkshopTLDMods/-/raw/WorkshopDatabase8.5/V8_V1.2.zip",
		 "PictureLink": "https://gitlab.com/KolbenLP/WorkshopTLDMods/-/raw/WorkshopDatabase8.5/picture/v8.png",
		 "FileName": "SERENA_V8ENGINE.dll",
		 "Category": "Engines"
     },
           {
		"Name": "Extra foods mod",
		 "Version": "1.4",
		 "Author": "RUNDEN",
		 "Description": "Silly mod which adds a bunch more food items to the game which you can eat!",
		 "Date": "5/11/2021",
		 "Link": "https://gitlab.com/KolbenLP/WorkshopTLDMods/-/raw/WorkshopDatabase8.5/RundenExtraFoodMod.dll",
		 "PictureLink": "https://gitlab.com/KolbenLP/WorkshopTLDMods/-/raw/WorkshopDatabase8.5/picture/foodmod.png",
		 "FileName": "RundenExtraFoodMod.dll",
		 "Category": "Items"
     },
         {
		"Name": "Exploding Cacti In TLD",
		 "Version": "1.1",
		 "Author": "coolgamer553",
		 "Description": "When Crashing Into Cacti They Now Explode, Its Pretty Self Explaining, Just Crash Into Cacti See What Happens!",
		 "Date": "26/10/2021",
		 "Link": "https://gitlab.com/KolbenLP/WorkshopTLDMods/-/raw/WorkshopDatabase8.5/coolgamer553_exploding_cacti.dll",
		 "PictureLink": "https://gitlab.com/KolbenLP/WorkshopTLDMods/-/raw/WorkshopDatabase8.5/picture/excac.png",
		 "FileName": "coolgamer553_exploding_cacti.dll",
		 "Category": "Gameplay"
     },
         {
		"Name": "Custom AutoSave Interavall",
		 "Version": "2.0",
		 "Author": "KolbenLP",
		 "Description": "You can set an custom Autosave Interval, by opening the GUI with F8! The GUI is pretty self explaining. Press - to lower the interval, press + to higher it. Press Save to Save the interval, so its the same if you restart the game. \n\nPress F6 to Trigger an Autosave automatically. \nNOTE: Autosave has to be enabled in the Settings in order for it to work!",
		 "Date": "23/10/2021",
		 "Link": "https://gitlab.com/KolbenLP/WorkshopTLDMods/-/raw/WorkshopDatabase8.5/CustomAutosaveIntervall.dll",
		 "PictureLink": "https://gitlab.com/KolbenLP/WorkshopTLDMods/-/raw/WorkshopDatabase8.5/picture/quicksave.png",
		 "FileName": "CustomAutosaveIntervall.dll",
		 "Category": "Gameplay"
     },
        {
		"Name": "Additional Rims",
		 "Version": "1.2",
		 "Author": "Jessica",
		 "Description": "This mod adds 9 new car rims, bringing the total of car rims to choose from to 10, it also adds 2 new bus/truck rims made to be used together, shallow for the front axle, deep for the rear axle! They spawn mostly random, so finding a full set of desired rims could become a fun little scavenger hunt! ",
		 "Date": "14/10/2021",
		 "Link": "https://gitlab.com/KolbenLP/WorkshopTLDMods/-/raw/WorkshopDatabase8.5/Serenas_Additional_Rims_V1.2.zip",
		 "PictureLink": "https://gitlab.com/KolbenLP/WorkshopTLDMods/-/raw/WorkshopDatabase8.5/picture/rims.png",
		 "FileName": "SERENA_RIMS_MOD.dll",
		 "Category": "Items"
     },
      {
		"Name": "Hyperzine 2.0",
		 "Version": "2.1.0",
		 "Author": "KolbenLP",
		 "Description": "Pour this light blue liquid in your Gas/Diesel Tank, ca. 30% Hyperzine 2.0 and the rest Diesel or Gas. Your Car will run much faster now (ca. 250kmh+)! Beware tho. if you pour too much of it in the gas tank, the car will have no idle and runs not so good.\nIt will also spawn naturally.\nOriginal mod by Splendid",
		 "Date": "11/10/2021",
		 "Link": "https://gitlab.com/KolbenLP/WorkshopTLDMods/-/raw/WorkshopDatabase8.5/Hyperzine_2.0.dll",
		 "PictureLink": "https://gitlab.com/KolbenLP/WorkshopTLDMods/-/raw/WorkshopDatabase8.5/picture/hyperzine2.png",
		 "FileName": "Hyperzine_2.0.dll",
		 "Category": "Vehicles"
     },
     {
		"Name": "Gutted Ikarus",
		 "Version": "1.0",
		 "Author": "Jessica",
		 "Description": "This removes the whole interior of the Ikarus 260 & 280 buses and adds physlock to the entire interior space, allowing you to store or build whatever you want inside of the buses without it being able to move!\nDue to how this mod was made, the button under the front bumper is now invisible, but it is still there and can still be used to open the door. ",
		 "Date": "03/10/2021",
		 "Link": "https://gitlab.com/KolbenLP/WorkshopTLDMods/-/raw/WorkshopDatabase8.5/SERENA_GUTTED_IKARUS.dll",
		 "PictureLink": "https://gitlab.com/KolbenLP/WorkshopTLDMods/-/raw/WorkshopDatabase8.5/picture/guttedikarus.png",
		 "FileName": "SERENA_GUTTED_IKARUS.dll",
		 "Category": "Vehicles"
     },
     {
		"Name": "Randomly Sized Baskets",
		 "Version": "1.0",
		 "Author": "Jessica",
		 "Description": "This changes the baskets to spawn at a random size, from tiny to IFA flatbed sized! Carry large amounts of items with ease on any car! Note that this random size means the Ebatta will no longer spawn with a basket attached. ",
		 "Date": "01/10/2021",
		 "Link": "https://gitlab.com/KolbenLP/WorkshopTLDMods/-/raw/WorkshopDatabase8.5/SERENA_BASKET_RESIZE.dll",
		 "PictureLink": "https://gitlab.com/KolbenLP/WorkshopTLDMods/-/raw/WorkshopDatabase8.5/picture/baskets.png",
		 "FileName": "SERENA_BASKET_RESIZE.dll",
		 "Category": "Items"
     },
     {
		"Name": "DropCamTweak",
		 "Version": "1.0",
		 "Author": "user-m89o8bivor",
		 "Description": "DropCam is a \"Hidden Camera\" that initially spawns exactly where your in-game camera is. This mod tweaks the way it behaves depending on which keys you hold before enabling it",
		 "Date": "13/06/2021",
		 "Link": "https://gitlab.com/KolbenLP/WorkshopTLDMods/-/raw/WorkshopDatabase8.5/DropCamTweak.dll",
		 "PictureLink": "https://gitlab.com/KolbenLP/WorkshopTLDMods/-/raw/WorkshopDatabase8.5/picture/dropcam.png",
		 "FileName": "DropCamTweak.dll",
		 "Category": "Gameplay"
     },
     {
		"Name": "Physics Lock for Cargo IFA",
		 "Version": "1.8",
		 "Author": "Rostik",
		 "Description": "Uses the basket's physics lock on the katona variant of the IFA. Items inside will stay in place now :)",
		 "Date": "22/07/2021",
		 "Link": "https://gitlab.com/KolbenLP/WorkshopTLDMods/-/raw/WorkshopDatabase8.5/Rostik_Katona_Mod.dll",
		 "PictureLink": "https://gitlab.com/KolbenLP/WorkshopTLDMods/-/raw/WorkshopDatabase8.5/picture/rostik.png",
		 "FileName": "Rostik_Katona_Mod.dll",
		 "Category": "Gameplay"
     },
                    {
		"Name": "Random Horn",
		 "Version": "1.0",
		 "Author": "Ghaleas",
		 "Description": "Randomises the horns in all cars",
		 "Date": "21/04/2021",
		 "Link": "https://gitlab.com/KolbenLP/WorkshopTLDMods/-/raw/WorkshopDatabase8.5/GHALEAS_RANDOM_HORN.dll",
		 "PictureLink": "https://gitlab.com/KolbenLP/WorkshopTLDMods/-/raw/WorkshopDatabase8.5/picture/horny.png",
		 "FileName": "GHALEAS_RANDOM_HORN.dll",
		 "Category": "Gameplay"
     },
                  {
		"Name": "Diesel Swap Mod [LEGACY]",
		 "Version": "1.2.4.6",
		 "Author": "Ghaleas, Runden, NICULL",
		 "Description": "Dacia and Lada Riva can now spawn diesel engines. These can also be found in the wild (they have more power and less RPMs)\n\nChanglogs:\n-Changed colors of engines to be lighter\n-Diesel dacia uses 0.1L of oil every 2 minutes\n-Diesel dacia holds 5.4L of oil\n-Diesel dacia has 123nm @3k rpm\n-Diesel lada uses 0.1L of oil every 1:30 minutes\n-Diesel lada holds 5.6L of oil\n-Diesel lada has 145nm @2.5k rpm",
		 "Date": "28/03/2021",
		 "Link": "https://gitlab.com/KolbenLP/WorkshopTLDMods/-/raw/WorkshopDatabase8.5/Diesel_Cars_Mod.dll",
		 "PictureLink": "https://gitlab.com/KolbenLP/WorkshopTLDMods/-/raw/WorkshopDatabase8.5/picture/diesel.png",
		 "FileName": "Diesel_Cars_Mod.dll",
		 "Category": "LEGACY"
     },
              {
		"Name": "Physlock Radiator",
		 "Version": "2.2",
		 "Author": "RUNDEN, Ghaleas",
		 "Description": "Physlock radiators in air-cooled vehicles to cool the engine. \n-Multiple radiators can be used. Making air-cooled vehicles the superior option.",
		 "Date": "30/09/2022",
		 "Link": "https://gitlab.com/KolbenLP/WorkshopTLDMods/-/raw/WorkshopDatabase8.5/RUNDENtrabantRadiator.dll",
		 "PictureLink": "https://gitlab.com/KolbenLP/WorkshopTLDMods/-/raw/WorkshopDatabase8.5/picture/radtrab.png",
		 "FileName": "RUNDENtrabantRadiator.dll",
		 "Category": "Vehicles",
		 "Changelog": "-Jawa added to list of vehicles.\n-Trabant bumper radiator slot no longer works. However the bug related to them is now gone."
     },

              {
		"Name": "Tire Wear",
		 "Version": "1.8",
		 "Author": "RUNDEN",
		 "Description": "DISCLAIMER: THIS MOD IS BUGGY AND CAN CAUSE YOUR CAR TO BEHAVE VERY WEIRDLY AND GLITCH OUT!\n\nThis mod makes your wheels wear down as you drive along, doing burnouts and skidding sideways will tear up your wheels until they pop!\n\nMake sure to bring a spare tire!!\n\nUpdate to Tire Wear mod, updated to version 1.8 :)\nNow tyres will no longer get worn by being in the air\nLarge bus/truck tyres get worn more slowly and are much more usable\nwhen tyres are skidding, you will loose control a bit more so you can drift a bit more easily :)",
		 "Date": "14/02/2022",
		 "Link": "https://gitlab.com/KolbenLP/WorkshopTLDMods/-/raw/WorkshopDatabase8.5/RundenTireDamage.dll",
		 "PictureLink": "https://gitlab.com/KolbenLP/WorkshopTLDMods/-/raw/WorkshopDatabase8.5/picture/tirewear.png",
		 "FileName": "RundenTireDamage.dll",
		 "Category": "Vehicles"
     },
              {
		"Name": "Temperature Gauge Mod",
		 "Version": "1.1",
		 "Author": "Ghaleas, Runden",
		 "Description": "Find-able temperature gauges. Now you'll know how hot a turbo Trabant can get! The gauges aren't precise but let's face it, it's 1979's soviet engineering.",
		 "Date": "6/03/2021",
		 "Link": "https://gitlab.com/KolbenLP/WorkshopTLDMods/-/raw/WorkshopDatabase8.5/Temperature Gauge Mod.zip",
		 "PictureLink": "https://gitlab.com/KolbenLP/WorkshopTLDMods/-/raw/WorkshopDatabase8.5/picture/temp_gauge.png",
		 "FileName": "Temperature Gauge Mod.dll",
		 "Category": "Items"
     },
            {
		"Name": "Ducktail Spoiler for ladas",
		 "Version": "1.06",
		 "Author": "RUNDEN",
		 "Description": "A little plastic ducktail spoiler for the boot lid of your ladas :)\nSupports 2101 and 2105\n1 in 2 chance of spawning!",
		 "Date": "5/03/2021",
		 "Link": "https://gitlab.com/KolbenLP/WorkshopTLDMods/-/raw/WorkshopDatabase8.5/RUNDEN_LADA_SPOILER.dll",
		 "PictureLink": "https://gitlab.com/KolbenLP/WorkshopTLDMods/-/raw/WorkshopDatabase8.5/picture/ducktail300.png",
		 "FileName": "RUNDEN_LADA_SPOILER.dll",
		 "Category": "Items"
     },

           {
		"Name": "Turbo Mod",
		 "Version": "1.6t",
		 "Author": "RUNDEN",
		 "Description": "Adds turbochargers as loot from buildings, which you can mount to any engine, and get a nice power boost! USE MANUAL, AUTO SHIFT DOESN'T REV ENOUGH.",
		 "Date": "9/02/2021",
		 "Link": "https://gitlab.com/KolbenLP/WorkshopTLDMods/-/raw/WorkshopDatabase8.5/Turbo.zip",
		 "PictureLink": "https://gitlab.com/KolbenLP/WorkshopTLDMods/-/raw/WorkshopDatabase8.5/picture/turbo.png",
		 "FileName": "RUNDEN_TURBO.dll",
		 "Category": "Items"
     },
       {
		"Name": "TLD Toolset",
		 "Version": "1.1",
		 "Author": "ELS",
		 "Description": "This mod allows you to look up, edit, and mess around with objects in the game, and their components! \n(Ctrl + Z) to open",
		 "Date": "24/01/2021",
		 "Link": "https://gitlab.com/KolbenLP/WorkshopTLDMods/-/raw/WorkshopDatabase8.5/TLDToolset.dll",
		 "PictureLink": "https://gitlab.com/KolbenLP/WorkshopTLDMods/-/raw/WorkshopDatabase8.5/picture/toolset.png",
		 "FileName": "TLDToolset.dll",
		 "Category": "Cheats"
     },
       {
		"Name": "Tachometers Mod",
		 "Version": "1.1B",
		 "Author": "RUNDEN",
		 "Description": "Adds aftermarket tachometers you can find as loot, and mount to your car (almost) wherever you like!\nThere's 8 different tachometers to find, and two variations of each.",
		 "Date": "26/01/2021",
		 "Link": "https://gitlab.com/KolbenLP/WorkshopTLDMods/-/raw/WorkshopDatabase8.5/Tachometers Mod.zip",
		 "PictureLink": "https://gitlab.com/KolbenLP/WorkshopTLDMods/-/raw/WorkshopDatabase8.5/picture/tach.png",
		 "FileName": "Tachometers Mod.dll",
		 "Category": "Items"
     },
     {
		"Name": "CarInfotainmentText",
		 "Version": "1.0",
		 "Author": "ELS",
		 "Description": "This mod adds an in-game menu that shows Other information about the car you're driving (see picture logo).\nnote: only works when in-car ofc\n(F2) to open",
		 "Date": "24/01/2021",
		 "Link": "https://gitlab.com/KolbenLP/WorkshopTLDMods/-/raw/WorkshopDatabase8.5/CIT.dll",
		 "PictureLink": "https://gitlab.com/KolbenLP/WorkshopTLDMods/-/raw/WorkshopDatabase8.5/picture/CIT.png",
		 "FileName": "CIT.dll",
		 "Category": "GUI"
     },

           {
		"Name": "VAZ 2104 (Riva Estate)",
		 "Version": "1.08",
		 "Author": "RUNDEN",
		 "Description": "This adds the estate version of the legendary lada 2105! This is lada model 2104. It has so much cargo space :)",
		 "Date": "23/01/2021",
		 "Link": "https://gitlab.com/KolbenLP/WorkshopTLDMods/-/raw/WorkshopDatabase8.5/VAZ 2104 (Riva Estate).zip",
		 "PictureLink": "https://gitlab.com/KolbenLP/WorkshopTLDMods/-/raw/WorkshopDatabase8.5/picture/vaz2104.png",
		 "FileName": "RUNDEN_2104.dll",
		 "Category": "Vehicles"
     },
         {
		"Name": "Improved Handbrakes",
		 "Version": "1.2",
		 "Author": "RUNDEN",
		 "Description": "Fixes the handbrakes so they behave like real life.\nYou can now do handbrake turns!\nYou can enabled arcade style control in the pause menu.",
		 "Date": "15/01/2021",
		 "Link": "https://gitlab.com/KolbenLP/WorkshopTLDMods/-/raw/WorkshopDatabase8.5/RundenHandbrake.dll",
		 "PictureLink": "https://gitlab.com/KolbenLP/WorkshopTLDMods/-/raw/WorkshopDatabase8.5/picture/betterhandbrake.png",
		 "FileName": "RundenHandbrake.dll",
		 "Category": "Gameplay"
     },
                 {
		"Name": "Remove Rocks From Road",
		 "Version": "1.4",
		 "Author": "RUNDEN",
		 "Description": "This mod removes all those annoying rocks that spawn on the road. No more crashing into a rock that just popped in!",
		 "Date": "1/04/1969",
		 "Link": "https://gitlab.com/KolbenLP/WorkshopTLDMods/-/raw/WorkshopDatabase8.5/NoRocksOnRoad.dll",
		 "PictureLink": "https://gitlab.com/KolbenLP/WorkshopTLDMods/-/raw/WorkshopDatabase8.5/picture/rocc_mod.png",
		 "FileName": "NoRocksOnRoad.dll",
		 "Category": "Gameplay"
     },
               {
		"Name": "Elon Musk",
		 "Version": "1.0",
		 "Author": "RUNDEN",
		 "Description": "it's elon musk.\n\nDEL key spawns / removes musk\nRight-Shift makes him look at you\nAlt-Gr makes him follow you",
		 "Date": "22/12/2020",
		 "Link": "https://gitlab.com/KolbenLP/WorkshopTLDMods/-/raw/WorkshopDatabase8.5/Elon Musk.zip",
		 "PictureLink": "https://gitlab.com/KolbenLP/WorkshopTLDMods/-/raw/WorkshopDatabase8.5/picture/musk_mod.png",
		 "FileName": "Elon Musk.dll",
		 "Category": "NPC"
     },
             {
		"Name": "Right-Hand-Drive Cars",
		 "Version": "9.5r",
		 "Author": "RUNDEN",
		 "Description": "Adds RHD (right hand drive) cars to the game! Some have 5 speed gearbox, tachometer slots, and other upgrades! The cars should spawn randomly as loot parked at buildings\n\nGlovebox fixed on 2101&2102, and 2102 has a proper revering light",
		 "Date": "12/12/2020",
		 "Link": "https://gitlab.com/KolbenLP/WorkshopTLDMods/-/raw/WorkshopDatabase8.5/RUNDEN_RHD.dll",
		 "PictureLink": "https://gitlab.com/KolbenLP/WorkshopTLDMods/-/raw/WorkshopDatabase8.5/picture/rhd_mod.png",
		 "FileName": "RUNDEN_RHD.dll",
		 "Category": "Vehicles",
		 "Changelog": "This update fixes the bug which broke the doors of RHD Barkas vans, and issues changing gear with the 5 speed Wartburg Knight, and other small issues."
     },
           {
		"Name": "MPH Mod",
		 "Version": "1.88",
		 "Author": "RUNDEN",
		 "Description": "Changes all the guages in cars to read in MPH instead of KMH! Good for America and UK people lol.",
		 "Date": "4/12/2020",
		 "Link": "https://gitlab.com/KolbenLP/WorkshopTLDMods/-/raw/WorkshopDatabase8.5/RUNDEN_MPH_Mod.zip",
		 "PictureLink": "https://gitlab.com/KolbenLP/WorkshopTLDMods/-/raw/WorkshopDatabase8.5/picture/mph_mod.png",
		 "FileName": "RUNDEN_MPH_Mod.zip",
		 "Category": "Vehicles"
     },
         {
		"Name": "Playable Piano",
		 "Version": "0.8",
		 "Author": "RUNDEN",
		 "Description": "Adds a piano as loot you can find!\n\nYou can press E on the keys to play it!\n(Press ESC to stop playing)",
		 "Date": "1/12/2020",
		 "Link": "https://gitlab.com/KolbenLP/WorkshopTLDMods/-/raw/WorkshopDatabase8.5/RundenPiano.zip",
		 "PictureLink": "https://gitlab.com/KolbenLP/WorkshopTLDMods/-/raw/WorkshopDatabase8.5/picture/piano.png",
		 "FileName": "RundenPiano.dll",
		 "Category": "Items"
     },
       {
		"Name": "Mount Anywhere Mod",
		 "Version": "1.3",
		 "Author": "RUNDEN, Ghaleas",
		 "Description": "Mount anywhere mod has been altered to function again after the most recent update, however the behavior is now slightly different, to mount items in different slots, hold F and let the bar fill and then drain completely, then release F again.\n\nCredits go to Ghaleas for the fix, credits for the original mod go to Runden",
		 "Date": "27/11/2020",
		 "Link": "https://gitlab.com/KolbenLP/WorkshopTLDMods/-/raw/WorkshopDatabase8.5/RundenMountAnywhere.dll",
		 "PictureLink": "https://gitlab.com/KolbenLP/WorkshopTLDMods/-/raw/WorkshopDatabase8.5/picture/mountanywhere.png",
		 "FileName": "RundenMountAnywhere.dll",
		 "Category": "Vehicles"
     },
     {
		 "Name": "RundenPhysicsGun",
		 "Version": "1.7dt",
		 "Author": "RUNDEN",
		 "Description": "This is the REAL physics gun mod lol. \nFirst modloader mod that supports saving / loading! \nPhysics gun will spawn naturally as loot",
		 "Date": "24/09/2020",
		 "Link": "https://gitlab.com/KolbenLP/WorkshopTLDMods/-/raw/WorkshopDatabase8.5/RundenPhysicsGun.zip",
		 "PictureLink": "https://gitlab.com/KolbenLP/WorkshopTLDMods/-/raw/WorkshopDatabase8.5/picture/rundenphysicsgun.png",
		 "FileName": "RundenPhysicsGun.dll",
		 "Category": "Items"
     },
     {
		 "Name": "Push Harder",
		 "Version": "1.0",
		 "Author": "KolbenLP",
		 "Description": "You can basicly push your cars faster. \nPushing strengh is veri high now",
		 "Date": "05/08/2020",
		 "Link": "https://gitlab.com/KolbenLP/WorkshopTLDMods/-/raw/WorkshopDatabase8.5/PushHarder.dll",
		 "PictureLink": "https://gitlab.com/KolbenLP/WorkshopTLDMods/-/raw/WorkshopDatabase8.5/picture/pushharder.png",
		 "FileName": "PushHarder.dll",
		 "Category": "Gameplay"
     },
     {
		 "Name": "FastPedal",
		 "Version": "1.0",
		 "Author": "KolbenLP",
		 "Description": "With this mod you can pedal really fast with your bike xD (press shift for even faster pedalling)",
		 "Date": "05/08/2020",
		 "Link": "https://gitlab.com/KolbenLP/WorkshopTLDMods/-/raw/WorkshopDatabase8.5/FASTPEDAL.dll",
		 "PictureLink": "https://gitlab.com/KolbenLP/WorkshopTLDMods/-/raw/WorkshopDatabase8.5/picture/fastpedal.png",
		 "FileName": "FASTPEDAL.dll",
		 "Category": "Gameplay"
     }

   
   ]
}
